{
    "runid": "825ed9e3-6553-4104-afd4-35144b5edb3d",
    "secondsSinceEpoch": 1604329966,
    "imei": "123456789012345",
    "items": {
        "is-device-sim-activated": {
            "title": "Device SIM is activated",
            "passFail": true,
            "detailMap": {
                "Date activated": "2020-11-02",
                "Date updated": "2020-11-03"
            }
        },
        "is-device-sim-data-transfer-usage": {
            "title": "Device SIM has transferred data",
            "passed": true,
            "detailMap": {
                "Transferred bytes this billing cycle": "369 bytes"
            }
        },
        "is-device-reported-state-recent": {
            "title": "Device reported state",
            "error": "Unable to load device reported state"
        },
        "is-device-server-config-valid": {
            "title": "Device server configuration is valid",
            "jobUrl": "http://localhost:8080/api/v2/jobs/f8ece591-1b47-410e-b4a0-2fcea1b6790d/report.json"
        },
        "is-device-reachable-by-voice-call": {
            "title": "Device responds to voice call",
            "triggerUrl": "http://localhost:8080/api/v2/jobs/2ec5cb0e-dd38-486a-a722-5ddf66184bcc/report.json"
        }
    }
}
